{
    "name": "FilesAndFoldersExplorer",
    "references": [
        "unicodebasedid"
    ],
    "optionalUnityReferences": [],
    "includePlatforms": [],
    "excludePlatforms": [],
    "allowUnsafeCode": false,
    "overrideReferences": false,
    "precompiledReferences": [],
    "autoReferenced": true,
    "defineConstraints": [],
    "versionDefines": []
}