
{                                                                   
            "name": "FilesAndFoldersExplorerEditor",          
    "references": ["FilesAndFoldersExplorer"
],                                                              
    "optionalUnityReferences": [],                                  
    "includePlatforms": [                                           
        "Editor"                                                    
    ],                                                              
    "excludePlatforms": [],                                         
    "allowUnsafeCode": false,                                       
    "overrideReferences": false,                                    
    "precompiledReferences": [],                                    
    "autoReferenced": true,                                         
    "defineConstraints": []                                         
}                                                                   