%YAML 1.1
%TAG !u! tag:unity3d.com,2011:
--- !u!114 &11400000
MonoBehaviour:
  m_ObjectHideFlags: 0
  m_CorrespondingSourceObject: {fileID: 0}
  m_PrefabInstance: {fileID: 0}
  m_PrefabAsset: {fileID: 0}
  m_GameObject: {fileID: 0}
  m_Enabled: 1
  m_EditorHideFlags: 0
  m_Script: {fileID: 11500000, guid: d8bb797ce4a6bca479a6a77ca9c6f17e, type: 3}
  m_Name: RawPathWithID
  m_EditorClassIdentifier: 
  m_data:
    m_paths:
    - m_id: 
      m_paths: 
